…
To add our grouping variable in, we have to add an additional line to identify them and then one more after our summarize function to remove the grouping (so we don't perform any more actions on the dataset when its grouped). I've also added in an extra line at the bottom to sort partners in each operating unit from high to low cumulative value using `arrange()`.

``` r
df %>% 
  filter(fiscal_year == 2019,
         indicator == "TX_NEW",
         standardizeddisaggregate == "Total Numerator"
         ) %>% 
  group_by(operatingunit, primepartner) %>% 
  summarise(cumulative = sum(cumulative, na.rm = TRUE)) %>% 
  ungroup() %>% 
  arrange(operatingunit, primepartner, desc(cumulative))
```

    ## # A tibble: 27 x 3
    ##    operatingunit primepartner        cumulative
    ##    <chr>         <chr>                    <dbl>
    ##  1 Jupiter       Canes Venatici             970
    ##  2 Jupiter       Delphinus                  110
    ##  3 Jupiter       Pegasus                   2160
    ##  4 Jupiter       Triangulum Australe      16670
    ##  5 Neptune       Auriga                    7850
    ##  6 Neptune       Boötes                    5380
    ##  7 Neptune       Dedup                    -2700
    ##  8 Neptune       Leo                       1140
    ##  9 Neptune       Libra                    24540
    ## 10 Neptune       Sagittarius               5010
    ## # ... with 17 more rows
…
We can also use `group_by_if()` to group by characteristics, eg character, numeric, double, etc.

``` r
df %>% 
  filter(fiscal_year == 2019,
         indicator == "TX_NEW",
         standardizeddisaggregate == "Total Numerator"
         ) %>% 
  group_by_if(is.character) %>% 
  summarise(cumulative = sum(cumulative, na.rm = TRUE)) %>% 
  ungroup()
```

    ## # A tibble: 94 x 39
    ##    region regionuid operatingunit operatingunituid countryname snu1 
    ##    <chr>  <chr>     <chr>         <chr>            <chr>       <chr>
    ##  1 Milky~ JCDsa4Gx~ Jupiter       SBnIjWsPgKN      Jupiter     Jupi~
    ##  2 Milky~ JCDsa4Gx~ Jupiter       SBnIjWsPgKN      Jupiter     Jupi~
    ##  3 Milky~ JCDsa4Gx~ Jupiter       SBnIjWsPgKN      Jupiter     Jupi~
    ##  4 Milky~ JCDsa4Gx~ Jupiter       SBnIjWsPgKN      Jupiter     Jupi~
    ##  5 Milky~ JCDsa4Gx~ Jupiter       SBnIjWsPgKN      Jupiter     Jupi~
    ##  6 Milky~ JCDsa4Gx~ Jupiter       SBnIjWsPgKN      Jupiter     Jupi~
    ##  7 Milky~ JCDsa4Gx~ Jupiter       SBnIjWsPgKN      Jupiter     Jupi~
    ##  8 Milky~ JCDsa4Gx~ Jupiter       SBnIjWsPgKN      Jupiter     Jupi~
    ##  9 Milky~ JCDsa4Gx~ Jupiter       SBnIjWsPgKN      Jupiter     Jupi~
    ## 10 Milky~ JCDsa4Gx~ Jupiter       SBnIjWsPgKN      Jupiter     Jupi~
    ## # ... with 84 more rows, and 33 more variables: snu1uid <chr>, psnu <chr>,
    ## #   psnuuid <chr>, snuprioritization <chr>, typemilitary <chr>,
    ## #   dreams <chr>, primepartner <chr>, fundingagency <chr>,
    ## #   mech_code <chr>, mech_name <chr>, pre_rgnlztn_hq_mech_code <chr>,
    ## #   prime_partner_duns <chr>, award_number <chr>, indicator <chr>,
    ## #   numeratordenom <chr>, indicatortype <chr>, disaggregate <chr>,
    ## #   standardizeddisaggregate <chr>, categoryoptioncomboname <chr>,
    ## #   ageasentered <chr>, trendsfine <chr>, trendssemifine <chr>,
    ## #   trendscoarse <chr>, sex <chr>, statushiv <chr>, statustb <chr>,
…
The `summarize()` function also has these extensions, `summarize_at()` and `summarize_if()`. With `summarize_at()` you will need to specify which variable(s) you want to aggregate in`vars()`. This extenstion allows you to summarize multiple variable here.

``` r
df %>% 
  filter(fiscal_year == 2019,
         indicator == "TX_NEW",
         standardizeddisaggregate == "Total Numerator"
         ) %>% 
  group_by(operatingunit, primepartner) %>% 
  summarise_at(vars(targets, cumulative), sum, na.rm = TRUE) %>% 
  ungroup()
```

    ## # A tibble: 27 x 4
    ##    operatingunit primepartner        targets cumulative
    ##    <chr>         <chr>                 <dbl>      <dbl>
    ##  1 Jupiter       Canes Venatici          350        970
    ##  2 Jupiter       Delphinus                80        110
    ##  3 Jupiter       Pegasus                1490       2160
    ##  4 Jupiter       Triangulum Australe    5700      16670
    ##  5 Neptune       Auriga                  620       7850
    ##  6 Neptune       Boötes                  840       5380
    ##  7 Neptune       Dedup                     0      -2700
    ##  8 Neptune       Leo                     550       1140
    ##  9 Neptune       Libra                  5210      24540
    ## 10 Neptune       Sagittarius            1500       5010
    ## # ... with 17 more rows

The `summarize_if()` function allows you to group by characteristics, eg character, numeric, double, etc, just like `group_by_if()`. This ability allows you to specify and summarize all our columns that are double, eg `targets, qtr1, qtr2, qtr3, qtr4, cumulative`

``` r
df %>% 
  filter(fiscal_year == 2019,
         indicator == "TX_NEW",
         standardizeddisaggregate == "Total Numerator"
         ) %>% 
  group_by(operatingunit, primepartner) %>% 
  summarise_if(is.double, sum, na.rm = TRUE) %>% 
  ungroup()
```

    ## # A tibble: 27 x 8
    ##    operatingunit primepartner    targets  qtr1  qtr2  qtr3  qtr4 cumulative
    ##    <chr>         <chr>             <dbl> <dbl> <dbl> <dbl> <dbl>      <dbl>
    ##  1 Jupiter       Canes Venatici      350   240   270   260   260        970
    ##  2 Jupiter       Delphinus            80    10    30    30    50        110
    ##  3 Jupiter       Pegasus            1490   540   530   560   550       2160
    ##  4 Jupiter       Triangulum Aus~    5700  3720  3910  3770  5320      16670
    ##  5 Neptune       Auriga              620  1470  1520  2040  2840       7850
    ##  6 Neptune       Boötes              840  1500  1500  1240  1150       5380
    ##  7 Neptune       Dedup                 0  -730  -770  -560  -630      -2700
    ##  8 Neptune       Leo                 550   300   270   240   340       1140
    ##  9 Neptune       Libra              5210  6830  6350  6070  5320      24540
    ## 10 Neptune       Sagittarius        1500  1270  1340  1160  1260       5010
    ## # ... with 17 more rows
…
